…
#inspecting data.frame 'weather'

#glimpse(weather) 

# selecting the year and 12 month variables
weather_clean <- weather %>% 
  select(1:13) 

# converting to the dataframe to longer format (tidyweather)
tidyweather <- pivot_longer(weather_clean, cols = 2:13, names_to = "Month", values_to = "delta")

tidyweather

## # A tibble: 1,716 x 3
##     Year Month delta
##    <dbl> <chr> <dbl>
##  1  1880 Jan   -0.39
##  2  1880 Feb   -0.53
##  3  1880 Mar   -0.23
##  4  1880 Apr   -0.3 
##  5  1880 May   -0.05
##  6  1880 Jun   -0.18
##  7  1880 Jul   -0.21
##  8  1880 Aug   -0.25
##  9  1880 Sep   -0.24
## 10  1880 Oct   -0.3 
## # ... with 1,706 more rows
…
en_new[is.na(en_new)] <- 0 #establish renewable energy usage as a percentage of energy as a whole
en_new <- en_new %>% 
mutate(percent = renew_en/ elecprod*100) %>% 
arrange(desc(percent)) %>% 
filter(renew_en != 0, percent != Inf)
en_new

## # A tibble: 196 x 13
##    country       elec_~1 elec_~2 elec_~3 elec_~4 elec_~5 elec_~6 elec_~7 elec_~8
##    <chr>           <dbl>   <dbl>   <dbl>   <dbl>   <dbl>   <dbl>   <dbl>   <dbl>
##  1 Albania             0 0         5.15        0 0        0        0.022 0      
##  2 Nepal               0 0         5.33        0 0        0        0.08  0.014  
##  3 Lesotho             0 0         0.541       0 0        0        0.001 0      
##  4 Bhutan              0 0         6.61        0 4.67e-5  0        0.001 0.001  
##  5 Paraguay            0 0        48.9         0 1.88e-3  0.886    0     0      
##  6 Iceland             0 0        13.3         0 2.82e-3  5.93     0     0.00642
##  7 Congo - Kins~       0 0.00246  11.0         0 1.30e-3  0.0290   0.01  0      
##  8 Ethiopia            0 0        14.0         0 5.41e-3  0.0294   0.02  0.533  
##  9 Central Afri~       0 0         0.15        0 1   e-3  0        0     0      
## 10 Costa Rica          0 0         7.75        0 9.02e-2  1.68     0.076 1.80   
## # ... with 186 more rows, 4 more variables: elecprod <dbl>, elec_cons <dbl>,
## #   renew_en <dbl>, percent <dbl>, and abbreviated variable names 1: elec_coal,
## #   2: elec_gas, 3: elec_hydro, 4: elec_nuc, 5: elec_oil, 6: elec_renew_other,
## #   7: elec_solar, 8: elec_wind
…
