…
#Building physical activity variable
yrbss_1 <- yrbss %>% 
  mutate(physical_3plus=ifelse(physically_active_7d>=3,"yes","no"))

yrbss_1

## # A tibble: 13,583 x 14
##      age gender grade hispanic race        height weight helme~1 text_~2 physi~3
##    <int> <chr>  <chr> <chr>    <chr>        <dbl>  <dbl> <chr>   <chr>     <int>
##  1    14 female 9     not      Black or A~  NA      NA   never   0             4
##  2    14 female 9     not      Black or A~  NA      NA   never   <NA>          2
##  3    15 female 9     hispanic Native Haw~   1.73   84.4 never   30            7
##  4    15 female 9     not      Black or A~   1.6    55.8 never   0             0
##  5    15 female 9     not      Black or A~   1.5    46.7 did no~ did no~       2
##  6    15 female 9     not      Black or A~   1.57   67.1 did no~ did no~       1
##  7    15 female 9     not      Black or A~   1.65  132.  did no~ <NA>          4
##  8    14 male   9     not      Black or A~   1.88   71.2 never   <NA>          4
##  9    15 male   9     not      Black or A~   1.75   63.5 never   <NA>          5
## 10    15 male   10    not      Black or A~   1.37   97.1 did no~ <NA>          0
## # ... with 13,573 more rows, 4 more variables: hours_tv_per_school_day <chr>,
## #   strength_training_7d <int>, school_night_hours_sleep <chr>,
## #   physical_3plus <chr>, and abbreviated variable names 1: helmet_12m,
## #   2: text_while_driving_30d, 3: physically_active_7d
…
  # assume independence, i.e, there is no difference
  hypothesize(null = "independence") %>%
  
  # generate 1000 reps, of type "permute"
  generate(reps = 1000, type = "permute") %>%
  
  # calculate statistic of difference, namely "diff in means"
  calculate(stat = "diff in means", order = c("yes", "no"))

null_dist

## Response: weight (numeric)
## Explanatory: physical_3plus (factor)
## Null Hypothesis: independence
## # A tibble: 1,000 x 2
##    replicate   stat
##        <int>  <dbl>
##  1         1  0.384
##  2         2 -0.470
##  3         3 -0.651
##  4         4  0.392
##  5         5  0.304
##  6         6 -0.375
##  7         7  0.609
##  8         8 -0.263
##  9         9 -0.169
## 10        10  0.462
## # ... with 990 more rows
…
#movies_mean<-count(movies, mean_rating) 
#movies_mean
movies_2

## # A tibble: 39 x 12
## # Groups:   director [2]
##    director rating mean_~1 sd_ra~2 count t_cri~3 se_ra~4 margi~5 ratin~6 ratin~7
##    <chr>     <dbl>   <dbl>   <dbl> <int>   <dbl>   <dbl>   <dbl>   <dbl>   <dbl>
##  1 Steven ~    7.9    7.57   0.695    23    2.07   0.145   0.301    7.27    7.87
##  2 Steven ~    8.1    7.57   0.695    23    2.07   0.145   0.301    7.27    7.87
##  3 Steven ~    6.2    7.57   0.695    23    2.07   0.145   0.301    7.27    7.87
##  4 Steven ~    8      7.57   0.695    23    2.07   0.145   0.301    7.27    7.87
##  5 Steven ~    8.5    7.57   0.695    23    2.07   0.145   0.301    7.27    7.87
##  6 Steven ~    6.5    7.57   0.695    23    2.07   0.145   0.301    7.27    7.87
##  7 Steven ~    6.5    7.57   0.695    23    2.07   0.145   0.301    7.27    7.87
##  8 Steven ~    8.6    7.57   0.695    23    2.07   0.145   0.301    7.27    7.87
##  9 Steven ~    8.3    7.57   0.695    23    2.07   0.145   0.301    7.27    7.87
## 10 Steven ~    7.4    7.57   0.695    23    2.07   0.145   0.301    7.27    7.87
## # ... with 29 more rows, 2 more variables: highest_rating <dbl>,
## #   lowest_rating <dbl>, and abbreviated variable names 1: mean_rating,
## #   2: sd_rating, 3: t_critical, 4: se_rating, 5: margin_of_error,
## #   6: rating_low, 7: rating_high
…
